{
    "content": [
        {
            "code": "AC-0000001",
            "accountCode": "ACC20001",
            "accountName": "Cash",
            "accountGroup": "Cash",
            "openingAmount": 0,
            "openingAmountInAccountCurrency": 0,
            "openingBalanceType": "DEBIT",
            "periodAmount": -720.00,
            "periodAmountInAccountCurrency": -720,
            "endingAmount": -720.00,
            "endingAmountInAccountCurrency": -720,
            "periodAmountInPrimaryCurrency": null,
            "openingAmountInPrimaryCurrency": null,
            "endingAmountInPrimaryCurrency": 0,
            "accountNature": "Asset",
            "accountCurrency": "USD",
            "accountid": null,
            "parentAccount": null,
            "groupid": null,
            "subGroup": null,
            "subGroupName": null,
            "group": false,
            "budget": null,
            "jeData": []
        },
        {
            "code": "AC-0000002",
            "accountCode": "ACC30001",
            "accountName": "Accounts Receivable",
            "accountGroup": "Current Assets",
            "openingAmount": 400.00,
            "openingAmountInAccountCurrency": 400.00,
            "openingBalanceType": "DEBIT",
            "periodAmount": -11266149.15,
            "periodAmountInAccountCurrency": -12151771.520,
            "endingAmount": -11265749.15,
            "endingAmountInAccountCurrency": -12151371.520,
            "periodAmountInPrimaryCurrency": null,
            "openingAmountInPrimaryCurrency": null,
            "endingAmountInPrimaryCurrency": 0,
            "accountNature": "Asset",
            "accountCurrency": "USD",
            "accountid": null,
            "parentAccount": null,
            "groupid": null,
            "subGroup": null,
            "subGroupName": null,
            "group": false,
            "budget": null,
            "jeData": []
        },
        {
            "code": "AC-0000003",
            "accountCode": "ACC30002",
            "accountName": "Inventory",
            "accountGroup": "Current Assets",
            "openingAmount": 3024418.00,
            "openingAmountInAccountCurrency": 3024418,
            "openingBalanceType": "DEBIT",
            "periodAmount": 497520.10,
            "periodAmountInAccountCurrency": 497520.10,
            "endingAmount": 3521938.10,
            "endingAmountInAccountCurrency": 3521938.10,
            "periodAmountInPrimaryCurrency": null,
            "openingAmountInPrimaryCurrency": null,
            "endingAmountInPrimaryCurrency": 0,
            "accountNature": "Asset",
            "accountCurrency": "USD",
            "accountid": null,
            "parentAccount": null,
            "groupid": null,
            "subGroup": null,
            "subGroupName": null,
            "group": false,
            "budget": null,
            "jeData": []
        },
        {
            "code": "AC-0000004",
            "accountCode": "ACC30003",
            "accountName": "Deposit",
            "accountGroup": "Current Assets",
            "openingAmount": 0,
            "openingAmountInAccountCurrency": 0,
            "openingBalanceType": "DEBIT",
            "periodAmount": 0,
            "periodAmountInAccountCurrency": 0,
            "endingAmount": 0,
            "endingAmountInAccountCurrency": 0,
            "periodAmountInPrimaryCurrency": null,
            "openingAmountInPrimaryCurrency": null,
            "endingAmountInPrimaryCurrency": 0,
            "accountNature": "Asset",
            "accountCurrency": "USD",
            "accountid": null,
            "parentAccount": null,
            "groupid": null,
            "subGroup": null,
            "subGroupName": null,
            "group": false,
            "budget": null,
            "jeData": []
        },
        {
            "code": "AC-0000005",
            "accountCode": "ACC30004",
            "accountName": "Investments",
            "accountGroup": "Current Assets",
            "openingAmount": 0,
            "openingAmountInAccountCurrency": 0,
            "openingBalanceType": "DEBIT",
            "periodAmount": 0,
            "periodAmountInAccountCurrency": 0,
            "endingAmount": 0,
            "endingAmountInAccountCurrency": 0,
            "periodAmountInPrimaryCurrency": null,
            "openingAmountInPrimaryCurrency": null,
            "endingAmountInPrimaryCurrency": 0,
            "accountNature": "Asset",
            "accountCurrency": "USD",
            "accountid": null,
            "parentAccount": null,
            "groupid": null,
            "subGroup": null,
            "subGroupName": null,
            "group": false,
            "budget": null,
            "jeData": []
        },
        {
            "code": "AC-0000006",
            "accountCode": "ACC30005",
            "accountName": "Fixed Assets",
            "accountGroup": "Long Term Assets",
            "openingAmount": 0,
            "openingAmountInAccountCurrency": 0,
            "openingBalanceType": "DEBIT",
            "periodAmount": 0,
            "periodAmountInAccountCurrency": 0,
            "endingAmount": 0,
            "endingAmountInAccountCurrency": 0,
            "periodAmountInPrimaryCurrency": null,
            "openingAmountInPrimaryCurrency": null,
            "endingAmountInPrimaryCurrency": 0,
            "accountNature": "Asset",
            "accountCurrency": "USD",
            "accountid": null,
            "parentAccount": null,
            "groupid": null,
            "subGroup": null,
            "subGroupName": null,
            "group": false,
            "budget": null,
            "jeData": []
        },
        {
            "code": "AC-0000007",
            "accountCode": "ACC30006",
            "accountName": "Accumulated Depreciations",
            "accountGroup": "Long Term Assets",
            "openingAmount": 0,
            "openingAmountInAccountCurrency": 0,
            "openingBalanceType": "DEBIT",
            "periodAmount": 594497.40,
            "periodAmountInAccountCurrency": 594497.40,
            "endingAmount": 594497.40,
            "endingAmountInAccountCurrency": 594497.40,
            "periodAmountInPrimaryCurrency": null,
            "openingAmountInPrimaryCurrency": null,
            "endingAmountInPrimaryCurrency": 0,
            "accountNature": "Asset",
            "accountCurrency": "USD",
            "accountid": null,
            "parentAccount": null,
            "groupid": null,
            "subGroup": null,
            "subGroupName": null,
            "group": false,
            "budget": null,
            "jeData": []
        },
        {
            "code": "AC-0000008",
            "accountCode": "ACC30007",
            "accountName": "Leasehold Improvements",
            "accountGroup": "Long Term Assets",
            "openingAmount": 0,
            "openingAmountInAccountCurrency": 0,
            "openingBalanceType": "DEBIT",
            "periodAmount": 0,
            "periodAmountInAccountCurrency": 0,
            "endingAmount": 0,
            "endingAmountInAccountCurrency": 0,
            "periodAmountInPrimaryCurrency": null,
            "openingAmountInPrimaryCurrency": null,
            "endingAmountInPrimaryCurrency": 0,
            "accountNature": "Asset",
            "accountCurrency": "USD",
            "accountid": null,
            "parentAccount": null,
            "groupid": null,
            "subGroup": null,
            "subGroupName": null,
            "group": false,
            "budget": null,
            "jeData": []
        },
        {
            "code": "AC-0000009",
            "accountCode": "ACC30008",
            "accountName": "Leasehold Improvements Accumulated Amortization",
            "accountGroup": "Long Term Assets",
            "openingAmount": 0,
            "openingAmountInAccountCurrency": 0,
            "openingBalanceType": "DEBIT",
            "periodAmount": 448999.70,
            "periodAmountInAccountCurrency": 448999.70,
            "endingAmount": 448999.70,
            "endingAmountInAccountCurrency": 448999.70,
            "periodAmountInPrimaryCurrency": null,
            "openingAmountInPrimaryCurrency": null,
            "endingAmountInPrimaryCurrency": 0,
            "accountNature": "Asset",
            "accountCurrency": "USD",
            "accountid": null,
            "parentAccount": null,
            "groupid": null,
            "subGroup": null,
            "subGroupName": null,
            "group": false,
            "budget": null,
            "jeData": []
        },
        {
            "code": "AC-0000010",
            "accountCode": "ACC30009",
            "accountName": "Finished Goods Inventory",
            "accountGroup": "Current Assets",
            "openingAmount": 5000.00,
            "openingAmountInAccountCurrency": 5000,
            "openingBalanceType": "DEBIT",
            "periodAmount": 450925.85,
            "periodAmountInAccountCurrency": 450925.85,
            "endingAmount": 455925.85,
            "endingAmountInAccountCurrency": 455925.85,
            "periodAmountInPrimaryCurrency": null,
            "openingAmountInPrimaryCurrency": null,
            "endingAmountInPrimaryCurrency": 0,
            "accountNature": "Asset",
            "accountCurrency": "USD",
            "accountid": null,
            "parentAccount": null,
            "groupid": null,
            "subGroup": null,
            "subGroupName": null,
            "group": false,
            "budget": null,
            "jeData": []
        },
        {
            "code": "AC-0000011",
            "accountCode": "ACC30090",
            "accountName": "WIP Inventory",
            "accountGroup": "Current Assets",
            "openingAmount": 0,
            "openingAmountInAccountCurrency": 0,
            "openingBalanceType": "DEBIT",
            "periodAmount": 0,
            "periodAmountInAccountCurrency": 0,
            "endingAmount": 0,
            "endingAmountInAccountCurrency": 0,
            "periodAmountInPrimaryCurrency": null,
            "openingAmountInPrimaryCurrency": null,
            "endingAmountInPrimaryCurrency": 0,
            "accountNature": "Asset",
            "accountCurrency": "INR",
            "accountid": null,
            "parentAccount": null,
            "groupid": null,
            "subGroup": null,
            "subGroupName": null,
            "group": false,
            "budget": null,
            "jeData": []
        },
        {
            "code": "AC-0000012",
            "accountCode": "ACC40001",
            "accountName": "Accounts Payable",
            "accountGroup": "Current Liabilities",
            "openingAmount": 0,
            "openingAmountInAccountCurrency": 0,
            "openingBalanceType": "CREDIT",
            "periodAmount": -9936907.08,
            "periodAmountInAccountCurrency": -10119484.049,
            "endingAmount": -9936907.08,
            "endingAmountInAccountCurrency": -10119484.049,
            "periodAmountInPrimaryCurrency": null,
            "openingAmountInPrimaryCurrency": null,
            "endingAmountInPrimaryCurrency": 0,
            "accountNature": "Liability",
            "accountCurrency": "USD",
            "accountid": null,
            "parentAccount": null,
            "groupid": null,
            "subGroup": null,
            "subGroupName": null,
            "group": false,
            "budget": null,
            "jeData": []
        },
        {
            "code": "AC-0000013",
            "accountCode": "ACC40002",
            "accountName": "Accrued Purchases",
            "accountGroup": "Current Liabilities",
            "openingAmount": 0,
            "openingAmountInAccountCurrency": 0,
            "openingBalanceType": "CREDIT",
            "periodAmount": -23607.83,
            "periodAmountInAccountCurrency": -23607.83,
            "endingAmount": -23607.83,
            "endingAmountInAccountCurrency": -23607.83,
            "periodAmountInPrimaryCurrency": null,
            "openingAmountInPrimaryCurrency": null,
            "endingAmountInPrimaryCurrency": 0,
            "accountNature": "Liability",
            "accountCurrency": "USD",
            "accountid": null,
            "parentAccount": null,
            "groupid": null,
            "subGroup": null,
            "subGroupName": null,
            "group": false,
            "budget": null,
            "jeData": []
        },
        {
            "code": "AC-0000014",
            "accountCode": "ACC40003",
            "accountName": "Accrued Purchase Return",
            "accountGroup": "Current Liabilities",
            "openingAmount": 0,
            "openingAmountInAccountCurrency": 0,
            "openingBalanceType": "CREDIT",
            "periodAmount": -665744.30,
            "periodAmountInAccountCurrency": -634447.95,
            "endingAmount": -665744.30,
            "endingAmountInAccountCurrency": -634447.95,
            "periodAmountInPrimaryCurrency": null,
            "openingAmountInPrimaryCurrency": null,
            "endingAmountInPrimaryCurrency": 0,
            "accountNature": "Liability",
            "accountCurrency": "USD",
            "accountid": null,
            "parentAccount": null,
            "groupid": null,
            "subGroup": null,
            "subGroupName": null,
            "group": false,
            "budget": null,
            "jeData": []
        },
        {
            "code": "AC-0000015",
            "accountCode": "ACC40004",
            "accountName": "Salary Payable",
            "accountGroup": "Current Liabilities",
            "openingAmount": 0,
            "openingAmountInAccountCurrency": 0,
            "openingBalanceType": "CREDIT",
            "periodAmount": 0,
            "periodAmountInAccountCurrency": 0,
            "endingAmount": 0,
            "endingAmountInAccountCurrency": 0,
            "periodAmountInPrimaryCurrency": null,
            "openingAmountInPrimaryCurrency": null,
            "endingAmountInPrimaryCurrency": 0,
            "accountNature": "Liability",
            "accountCurrency": "USD",
            "accountid": null,
            "parentAccount": null,
            "groupid": null,
            "subGroup": null,
            "subGroupName": null,
            "group": false,
            "budget": null,
            "jeData": []
        },
        {
            "code": "AC-0000016",
            "accountCode": "ACC40005",
            "accountName": "Expense Claims Payable",
            "accountGroup": "Current Liabilities",
            "openingAmount": 0,
            "openingAmountInAccountCurrency": 0,
            "openingBalanceType": "CREDIT",
            "periodAmount": -113543.45,
            "periodAmountInAccountCurrency": -101998.95,
            "endingAmount": -113543.45,
            "endingAmountInAccountCurrency": -101998.95,
            "periodAmountInPrimaryCurrency": null,
            "openingAmountInPrimaryCurrency": null,
            "endingAmountInPrimaryCurrency": 0,
            "accountNature": "Liability",
            "accountCurrency": "USD",
            "accountid": null,
            "parentAccount": null,
            "groupid": null,
            "subGroup": null,
            "subGroupName": null,
            "group": false,
            "budget": null,
            "jeData": []
        },
        {
            "code": "AC-0000017",
            "accountCode": "ACC40007",
            "accountName": "Income Tax Payable",
            "accountGroup": "Current Liabilities",
            "openingAmount": 0,
            "openingAmountInAccountCurrency": 0,
            "openingBalanceType": "CREDIT",
            "periodAmount": 0,
            "periodAmountInAccountCurrency": 0,
            "endingAmount": 0,
            "endingAmountInAccountCurrency": 0,
            "periodAmountInPrimaryCurrency": null,
            "openingAmountInPrimaryCurrency": null,
            "endingAmountInPrimaryCurrency": 0,
            "accountNature": "Liability",
            "accountCurrency": "USD",
            "accountid": null,
            "parentAccount": null,
            "groupid": null,
            "subGroup": null,
            "subGroupName": null,
            "group": false,
            "budget": null,
            "jeData": []
        },
        {
            "code": "AC-0000018",
            "accountCode": "ACC40008",
            "accountName": "Suspense",
            "accountGroup": "Current Liabilities",
            "openingAmount": 0,
            "openingAmountInAccountCurrency": 0,
            "openingBalanceType": "CREDIT",
            "periodAmount": 0,
            "periodAmountInAccountCurrency": 0,
            "endingAmount": 0,
            "endingAmountInAccountCurrency": 0,
            "periodAmountInPrimaryCurrency": null,
            "openingAmountInPrimaryCurrency": null,
            "endingAmountInPrimaryCurrency": 0,
            "accountNature": "Liability",
            "accountCurrency": "USD",
            "accountid": null,
            "parentAccount": null,
            "groupid": null,
            "subGroup": null,
            "subGroupName": null,
            "group": false,
            "budget": null,
            "jeData": []
        },
        {
            "code": "AC-0000019",
            "accountCode": "ACC40009",
            "accountName": "Unearned Revenue",
            "accountGroup": "Current Liabilities",
            "openingAmount": 0,
            "openingAmountInAccountCurrency": 0,
            "openingBalanceType": "CREDIT",
            "periodAmount": 0,
            "periodAmountInAccountCurrency": 0,
            "endingAmount": 0,
            "endingAmountInAccountCurrency": 0,
            "periodAmountInPrimaryCurrency": null,
            "openingAmountInPrimaryCurrency": null,
            "endingAmountInPrimaryCurrency": 0,
            "accountNature": "Liability",
            "accountCurrency": "USD",
            "accountid": null,
            "parentAccount": null,
            "groupid": null,
            "subGroup": null,
            "subGroupName": null,
            "group": false,
            "budget": null,
            "jeData": []
        },
        {
            "code": "AC-0000020",
            "accountCode": "ACC40010",
            "accountName": "Sales Tax",
            "accountGroup": "Current Liabilities",
            "openingAmount": 0,
            "openingAmountInAccountCurrency": 0,
            "openingBalanceType": "CREDIT",
            "periodAmount": 723.62,
            "periodAmountInAccountCurrency": 723.62,
            "endingAmount": 723.62,
            "endingAmountInAccountCurrency": 723.62,
            "periodAmountInPrimaryCurrency": null,
            "openingAmountInPrimaryCurrency": null,
            "endingAmountInPrimaryCurrency": 0,
            "accountNature": "Liability",
            "accountCurrency": "USD",
            "accountid": null,
            "parentAccount": null,
            "groupid": null,
            "subGroup": null,
            "subGroupName": null,
            "group": false,
            "budget": null,
            "jeData": []
        },
        {
            "code": "AC-0000021",
            "accountCode": "ACC50001",
            "accountName": "Sales",
            "accountGroup": "Income",
            "openingAmount": 0,
            "openingAmountInAccountCurrency": 0,
            "openingBalanceType": "CREDIT",
            "periodAmount": -524627.17,
            "periodAmountInAccountCurrency": -524627.17,
            "endingAmount": -524627.17,
            "endingAmountInAccountCurrency": -524627.17,
            "periodAmountInPrimaryCurrency": null,
            "openingAmountInPrimaryCurrency": null,
            "endingAmountInPrimaryCurrency": 0,
            "accountNature": "Income",
            "accountCurrency": "USD",
            "accountid": null,
            "parentAccount": null,
            "groupid": null,
            "subGroup": null,
            "subGroupName": null,
            "group": false,
            "budget": null,
            "jeData": []
        },
        {
            "code": "AC-0000022",
            "accountCode": "ACC50002",
            "accountName": "Sales Return",
            "accountGroup": "Income",
            "openingAmount": 0,
            "openingAmountInAccountCurrency": 0,
            "openingBalanceType": "CREDIT",
            "periodAmount": -441893.65,
            "periodAmountInAccountCurrency": -441893.65,
            "endingAmount": -441893.65,
            "endingAmountInAccountCurrency": -441893.65,
            "periodAmountInPrimaryCurrency": null,
            "openingAmountInPrimaryCurrency": null,
            "endingAmountInPrimaryCurrency": 0,
            "accountNature": "Income",
            "accountCurrency": "USD",
            "accountid": null,
            "parentAccount": null,
            "groupid": null,
            "subGroup": null,
            "subGroupName": null,
            "group": false,
            "budget": null,
            "jeData": []
        },
        {
            "code": "AC-0000023",
            "accountCode": "ACC50003",
            "accountName": "Interest Earned",
            "accountGroup": "Other Income",
            "openingAmount": 0,
            "openingAmountInAccountCurrency": 0,
            "openingBalanceType": "CREDIT",
            "periodAmount": -210852.10,
            "periodAmountInAccountCurrency": -194998.70,
            "endingAmount": -210852.10,
            "endingAmountInAccountCurrency": -194998.70,
            "periodAmountInPrimaryCurrency": null,
            "openingAmountInPrimaryCurrency": null,
            "endingAmountInPrimaryCurrency": 0,
            "accountNature": "Income",
            "accountCurrency": "USD",
            "accountid": null,
            "parentAccount": null,
            "groupid": null,
            "subGroup": null,
            "subGroupName": null,
            "group": false,
            "budget": null,
            "jeData": []
        },
        {
            "code": "AC-0000024",
            "accountCode": "ACC50004",
            "accountName": "Gain/Loss on Sale of Assets",
            "accountGroup": "Other Income",
            "openingAmount": 0,
            "openingAmountInAccountCurrency": 0,
            "openingBalanceType": "CREDIT",
            "periodAmount": 0,
            "periodAmountInAccountCurrency": 0,
            "endingAmount": 0,
            "endingAmountInAccountCurrency": 0,
            "periodAmountInPrimaryCurrency": null,
            "openingAmountInPrimaryCurrency": null,
            "endingAmountInPrimaryCurrency": 0,
            "accountNature": "Income",
            "accountCurrency": "USD",
            "accountid": null,
            "parentAccount": null,
            "groupid": null,
            "subGroup": null,
            "subGroupName": null,
            "group": false,
            "budget": null,
            "jeData": []
        },
        {
            "code": "AC-0000025",
            "accountCode": "ACC50005",
            "accountName": "Gain/Loss on Foreign Exchange",
            "accountGroup": "Other Income",
            "openingAmount": 0,
            "openingAmountInAccountCurrency": 0,
            "openingBalanceType": "CREDIT",
            "periodAmount": -61.78,
            "periodAmountInAccountCurrency": -61.78,
            "endingAmount": -61.78,
            "endingAmountInAccountCurrency": -61.78,
            "periodAmountInPrimaryCurrency": null,
            "openingAmountInPrimaryCurrency": null,
            "endingAmountInPrimaryCurrency": 0,
            "accountNature": "Income",
            "accountCurrency": "USD",
            "accountid": null,
            "parentAccount": null,
            "groupid": null,
            "subGroup": null,
            "subGroupName": null,
            "group": false,
            "budget": null,
            "jeData": []
        }
    ],
    "pageable": {
        "sort": {
            "sorted": false,
            "unsorted": true,
            "empty": true
        },
        "pageSize": 25,
        "pageNumber": 0,
        "offset": 0,
        "paged": true,
        "unpaged": false
    },
    "last": false,
    "totalElements": 94,
    "totalPages": 4,
    "first": true,
    "sort": {
        "sorted": false,
        "unsorted": true,
        "empty": true
    },
    "numberOfElements": 25,
    "size": 25,
    "number": 0,
    "empty": false
}